Data manipulation – Introduction toReproducibility with R”
…
We often want to work with a subset of the rows in our data. This might be to focus on one group or to remove data through quality control. The filter() function is used to filter rows in a dataframe. It takes a logical expression as an argument and returns only the rows that match the expression.

Filter to only the black cats

🎬 Filter to only the black cats

cats_black <- cats |> 
  filter(coat == "black")

🎬 Or only the not black cats:

cats |> 
  filter(coat != "black")

# A tibble: 39 × 2
   coat           mass
   <chr>         <dbl>
 1 white          2.8 
 2 tabby          4.96
 3 tortoiseshell  5.86
 4 white          4.3 
 5 tabby          4.92
 6 white          3.23
 7 white          6.53
 8 tortoiseshell  3.53
 9 tortoiseshell  4.52
10 ginger         5.18
# ℹ 29 more rows
…
# A tibble: 2 × 2
  coat    mass
  <chr>  <dbl>
1 ginger  6.37
2 ginger  6.09

filter the raw data to remove calico

cats |> 
  filter(coat != "calico")

# A tibble: 61 × 2
   coat           mass
   <chr>         <dbl>
 1 white          2.8 
 2 tabby          4.96
 3 tortoiseshell  5.86
 4 black          5.74
 5 white          4.3 
 6 tabby          4.92
 7 black          6.23
 8 white          3.23
 9 black          5.91
10 black          5.25
# ℹ 51 more rows
…
